<svg xmlns="http://www.w3.org/2000/svg" xmlns:xlink="http://www.w3.org/1999/xlink" viewBox="0 0 186.9032 224.0722">
  <defs>
    <style>
      .cls-1 {
        isolation: isolate;
      }

      .cls-2 {
        fill: none;
        stroke: #eceef1;
        stroke-linecap: square;
        stroke-miterlimit: 10;
        stroke-width: 2px;
      }

      .cls-3 {
        fill: #dfe1e5;
      }

      .cls-4 {
        fill: url(#linear-gradient);
      }

      .cls-5 {
        fill: #99c1ff;
      }

      .cls-6 {
        fill: #fff;
      }

      .cls-7, .cls-9 {
        fill: #cfd4db;
      }

      .cls-7 {
        mix-blend-mode: multiply;
      }

      .cls-8 {
        fill: #ff5230;
      }
    </style>
    <linearGradient id="linear-gradient" x1="33.6213" y1="190.4508" x2="153.2819" y2="70.7902" gradientUnits="userSpaceOnUse">
      <stop offset="0.2303" stop-color="#0065ff"/>
      <stop offset="0.4564" stop-color="#1a75ff"/>
      <stop offset="0.938" stop-color="#5d9dff"/>
      <stop offset="1" stop-color="#66a3ff"/>
    </linearGradient>
  </defs>
  <title>Compass</title>
  <g class="cls-1">
    <g id="Layer_2" data-name="Layer 2">
      <g id="Objects">
        <circle class="cls-2" cx="93.7263" cy="16.9158" r="15.9158"/>
        <path class="cls-3" d="M93.4516,21.4891h0A14.7687,14.7687,0,0,1,108.22,36.2579v3.3277a0,0,0,0,1,0,0H78.6829a0,0,0,0,1,0,0V36.2579A14.7687,14.7687,0,0,1,93.4516,21.4891Z"/>
        <path id="_Path_" data-name="&lt;Path&gt;" class="cls-4" d="M46.24,60.4153A84.6034,84.6034,0,1,1,23.246,177.8324,84.7,84.7,0,0,1,46.24,60.4153Z"/>
        <path class="cls-5" d="M91.4667,192.8149q-1.1265-.0308-2.2432-.103l.3037-4.7324q1.0305.0659,2.0713.0952Zm11.187-.6875-.7148-4.6885q1.0283-.1567,2.0439-.35l.8838,4.6592Q103.7672,191.9572,102.6537,192.1274Zm-24.5083-1.14q-1.0913-.2739-2.168-.585l1.3184-4.5557q.9939.2878,2.002.54Zm37.5024-2.32-1.7109-4.4229q.9653-.3735,1.9126-.7808l1.8721,4.3574Q116.694,188.2629,115.6478,188.6674ZM65.5316,186.32q-1.0063-.5024-1.9932-1.0405l2.2705-4.1641q.91.4966,1.8408.9614Zm62.0479-3.8359-2.623-3.9512q.8621-.572,1.7036-1.1763l2.7646,3.8535Q128.5136,181.8637,127.5795,182.4843Zm-73.36-3.4351q-.8738-.7053-1.7217-1.4409l3.1084-3.582q.783.68,1.5908,1.3315Zm83.6924-5.1626-3.4092-3.2969q.7214-.7463,1.4175-1.5171l3.5225,3.1748Q138.6915,173.081,137.9115,173.8867Zm-93.19-4.3516q-.7024-.8738-1.373-1.772l3.7988-2.8389q.6211.8306,1.2705,1.6392Zm101.4512-6.251-4.0312-2.498q.5464-.8818,1.061-1.7847l4.1191,2.3506Q146.7643,162.3291,146.1727,163.2841ZM37.4764,158.2129q-.4966-1.0012-.959-2.0225l4.32-1.9561q.427.9434.8867,1.8691Zm114.5-7.0654L147.5,149.581q.3428-.9792.6523-1.9756l4.5293,1.4053Q152.348,150.0874,151.9769,151.1474ZM32.8427,145.5952q-.27-1.0884-.501-2.1919l4.6426-.9687q.2124,1.0173.4609,2.019Zm122.1743-7.55-4.709-.5645q.123-1.0261.209-2.0625l4.7266.3916Q155.1505,136.9323,155.017,138.0449Zm-123.9746-5.77-.0059-.2437c-.0107-.4644-.0161-.9487-.0161-1.4321q0-.397.0049-.7925l4.7422.0635-.0049.729q0,.6709.0156,1.3447l.0044.1982Zm119.4043-7.2173q-.1-1.0356-.2363-2.06l4.7012-.626q.1479,1.1089.2559,2.231ZM36.828,119.5693l-4.6543-.9111q.2168-1.1052.4717-2.1958l4.6177,1.0811Q37.028,118.55,36.828,119.5693Zm111.0938-6.668q-.3208-.988-.6758-1.9595l4.4541-1.6279q.3853,1.0532.7324,2.1235Zm-107.395-5.186-4.3457-1.8984q.45-1.032.937-2.0444l4.2744,2.0547Q40.9428,106.7624,40.5267,107.7153Zm102.3-6.1357q-.5244-.8928-1.0806-1.7642l3.998-2.5508q.6028.9448,1.1714,1.9126ZM46.7,96.93l-3.8379-2.7861q.6592-.9082,1.35-1.7915L47.95,95.27Q47.3109,96.0888,46.7,96.93Zm88.7163-5.3154q-.7046-.761-1.4365-1.4971l3.3633-3.3437q.79.7954,1.5527,1.6182ZM55.035,87.7129l-3.1562-3.54q.8364-.7456,1.7-1.4619L56.6068,86.36Q55.8085,87.0224,55.035,87.7129Zm71.0112-4.2593q-.85-.5933-1.7241-1.1572l2.5723-3.9844q.9441.6094,1.8647,1.251ZM65.14,80.4892l-2.3262-4.1328q.9763-.5493,1.9736-1.064l2.1719,4.2158Q66.04,79.9821,65.14,80.4892Zm50.0112-3.0034q-.9595-.397-1.9355-.76L114.869,72.28q1.0554.3933,2.0928.8223Zm-38.5981-1.874-1.376-4.5381q1.0723-.3259,2.1616-.6133l1.209,4.5859Q77.5428,75.3115,76.5531,75.6118Zm26.6675-1.6011q-1.0181-.1794-2.0464-.3223l.6514-4.6973q1.1162.1545,2.22.35Zm-14.4634-.6929-.3682-4.7285q1.1155-.0864,2.2412-.1338l.1982,4.7383Q89.7877,73.2378,88.7572,73.3178Z"/>
        <polygon class="cls-6" points="102.534 121.538 136.266 130.62 102.534 139.702 93.452 173.434 84.369 139.702 50.637 130.62 84.369 121.538 93.452 87.806 102.534 121.538"/>
        <path class="cls-7" d="M132.47,86.1578l-42.7017,34.16a41.0161,41.0161,0,0,0-5.9825,5.8852L48.93,168.3389l42.7017-34.16a41.0161,41.0161,0,0,0,5.9825-5.8852Z"/>
        <path class="cls-8" d="M132.2511,86.5812,92.9525,124.6069a41.0161,41.0161,0,0,0-5.4023,6.422L56.8136,176.2572l39.2986-38.0258a41.0161,41.0161,0,0,0,5.4023-6.422Z"/>
        <circle class="cls-6" cx="93.5916" cy="131.8719" r="2.8214" transform="translate(-23.902 20.7646) rotate(-11.2363)"/>
        <path class="cls-9" d="M185.7905,116.1245a93.5349,93.5349,0,0,0-77.8428-77.843,94.9925,94.9925,0,0,0-28.9921,0,93.55,93.55,0,0,0-77.8432,77.843,95.0058,95.0058,0,0,0,0,28.9921,93.3238,93.3238,0,0,0,92.3327,78.9556,95.6722,95.6722,0,0,0,14.5025-1.1126,93.55,93.55,0,0,0,77.8428-77.843,95.6518,95.6518,0,0,0,1.1127-14.5025A93.8447,93.8447,0,0,0,185.7905,116.1245Zm-24.4332,14.5176c9.8906.67,16.5846,10.4366,14.2363,20.0677a84.5037,84.5037,0,0,1-62.06,62.0975c-9.3173,2.265-18.7887-3.9035-19.976-13.4184a13.4717,13.4717,0,0,1-.1121-1.6568q0,.3848-.028.7942c-.6678,9.8886-10.4319,16.5831-20.0608,14.2347A84.4889,84.4889,0,0,1,11.2821,150.76c-2.3558-9.6553,4.3463-19.4483,14.2622-20.1183q.41-.0277.7957-.0281-.3687,0-.7636-.0272c-9.9033-.6735-16.6111-10.4542-14.2535-20.0964a84.4809,84.4809,0,0,1,61.9828-62.038c9.6531-2.356,19.4432,4.3468,20.1115,14.2608q.0276.41.028.7957,0-.3853.028-.7952c.6672-9.888,10.43-16.5823,20.0586-14.2343a84.4958,84.4958,0,0,1,62.1022,62.0412c2.2684,9.3225-3.9071,18.8064-13.4292,19.9834a13.473,13.473,0,0,1-1.6417.11Q160.9478,130.6141,161.3573,130.6422Z"/>
      </g>
    </g>
  </g>
</svg>
